<svg width="24" height="24" viewBox="0 0 24 24" fill="none" xmlns="http://www.w3.org/2000/svg">
<path d="M6.16418 22.1255H2.84503C2.4448 22.1255 2.20335 21.9021 2.09506 21.7689C1.90812 21.539 1.8357 21.2397 1.8965 20.9477C2.87006 16.2713 6.99702 12.8562 11.7613 12.7454C11.8407 12.7483 11.9202 12.7503 12.0002 12.7503C12.081 12.7503 12.1612 12.7483 12.2413 12.7453C13.4063 12.7718 14.5442 12.9909 15.6274 13.3976C16.1121 13.5797 16.6526 13.3343 16.8346 12.8495C17.0167 12.3648 16.7713 11.8243 16.2865 11.6423C16.1313 11.584 15.975 11.5294 15.818 11.4776C17.3696 10.3137 18.3754 8.45967 18.3754 6.37514C18.3754 2.85991 15.5155 0 12.0002 0C8.48496 0 5.6251 2.85991 5.6251 6.37514C5.6251 8.46154 6.63256 10.317 8.18655 11.4808C6.76288 11.9494 5.42691 12.6783 4.25773 13.64C2.114 15.4033 0.623485 17.8629 0.0608327 20.5656C-0.115515 21.4124 0.0957084 22.2823 0.64036 22.952C1.18225 23.6183 1.98584 24.0005 2.84503 24.0005H6.16418C6.68197 24.0005 7.1017 23.5808 7.1017 23.063C7.1017 22.5452 6.68197 22.1255 6.16418 22.1255ZM7.50014 6.37514C7.50014 3.89376 9.51886 1.87504 12.0002 1.87504C14.4816 1.87504 16.5003 3.89376 16.5003 6.37514C16.5003 8.78302 14.5993 10.7551 12.2193 10.8698C12.1463 10.8685 12.0734 10.8674 12.0002 10.8674C11.9269 10.8674 11.8537 10.8685 11.7804 10.8698C9.40078 10.7548 7.50014 8.78278 7.50014 6.37514Z" fill="#9FA4B9"/>
<path d="M23.2817 16.1535C22.8804 15.2558 21.9764 14.6742 20.9765 14.6719H18.0528C18.0507 14.6719 18.0487 14.6719 18.0465 14.6719C16.9918 14.6719 16.0717 15.2935 15.7014 16.2566C15.6521 16.3848 15.5919 16.5462 15.529 16.7344H9.39079C9.13733 16.7344 8.8947 16.837 8.71812 17.0189L7.10764 18.6777C6.75293 19.0431 6.75472 19.6247 7.11163 19.9879L8.75229 21.6572C8.92854 21.8366 9.16949 21.9376 9.42093 21.9376H12.4679C12.9857 21.9376 13.4054 21.5179 13.4054 21.0001C13.4054 20.4823 12.9857 20.0626 12.4679 20.0626H9.81403L9.09083 19.3267L9.78727 18.6095H16.2323C16.6642 18.6095 17.0402 18.3144 17.1429 17.8949C17.2188 17.5852 17.3139 17.2874 17.4515 16.9294C17.5423 16.6934 17.7702 16.5469 18.0488 16.5469C18.0494 16.5469 18.05 16.5469 18.0506 16.5469H20.9743C21.2395 16.5475 21.4676 16.69 21.5699 16.9187C21.8216 17.4818 22.1221 18.3535 22.1243 19.3088C22.1266 20.2711 21.8264 21.1627 21.5741 21.7413C21.4723 21.9747 21.2422 22.1252 20.9853 22.1252C20.9848 22.1252 20.9843 22.1252 20.9837 22.1252H18.0247C17.7653 22.1246 17.5224 21.9577 17.4202 21.7099C17.3105 21.4441 17.2155 21.1406 17.1297 20.7819C17.0092 20.2784 16.5031 19.9679 15.9997 20.0884C15.4962 20.2089 15.1856 20.7148 15.3062 21.2183C15.415 21.673 15.5395 22.0676 15.6868 22.4248C16.0806 23.3794 16.9965 23.9978 18.0225 24.0002H20.9816C20.9836 24.0002 20.9855 24.0002 20.9875 24.0002C21.9883 24.0001 22.8929 23.4081 23.2929 22.4907C23.6169 21.7477 24.0024 20.5917 23.9994 19.3043C23.9964 18.0204 23.6074 16.8822 23.2817 16.1535Z" fill="#9FA4B9"/>
<path d="M20.2032 20.2507C20.721 20.2507 21.1407 19.8308 21.1407 19.3129C21.1407 18.7949 20.721 18.375 20.2032 18.375C19.6854 18.375 19.2656 18.7949 19.2656 19.3129C19.2656 19.8308 19.6854 20.2507 20.2032 20.2507Z" fill="#9FA4B9"/>
</svg>
