<svg width="12" height="10" viewBox="0 0 12 10" fill="none" xmlns="http://www.w3.org/2000/svg">
<path d="M4.45487 5L-1.94242e-07 1.11094L1.27256 2.22502e-07L7 5L1.27256 10L-1.55421e-06 8.88906L4.45487 5Z" fill="#7381FB"/>
<path d="M9.45487 5L5 1.11094L6.27256 2.22502e-07L12 5L6.27256 10L5 8.88906L9.45487 5Z" fill="#7381FB"/>
</svg>
