<svg width="12" height="13" viewBox="0 0 12 13" fill="none" xmlns="http://www.w3.org/2000/svg">
<path d="M6 0.333252C4.162 0.333252 2.66667 1.82859 2.66667 3.66659C2.66667 5.50459 4.162 6.99992 6 6.99992C7.838 6.99992 9.33333 5.50459 9.33333 3.66659C9.33333 1.82859 7.838 0.333252 6 0.333252ZM6 5.66659C4.89733 5.66659 4 4.76925 4 3.66659C4 2.56392 4.89733 1.66659 6 1.66659C7.10267 1.66659 8 2.56392 8 3.66659C8 4.76925 7.10267 5.66659 6 5.66659ZM12 12.9999V12.3333C12 9.76059 9.906 7.66659 7.33333 7.66659H4.66667C2.09333 7.66659 0 9.76059 0 12.3333V12.9999H1.33333V12.3333C1.33333 10.4953 2.82867 8.99992 4.66667 8.99992H7.33333C9.17133 8.99992 10.6667 10.4953 10.6667 12.3333V12.9999H12Z" fill="#7381FB"/>
</svg>
