<svg width="16" height="16" viewBox="0 0 16 16" fill="none" xmlns="http://www.w3.org/2000/svg">
<path d="M11.0692 7.36539C11.4719 6.67939 11.6506 5.88006 11.5699 5.07206C11.4506 3.88273 10.7866 2.83139 9.70122 2.11206L8.96455 3.22273C9.71055 3.71739 10.1646 4.42206 10.2432 5.20539C10.3166 5.94206 10.0566 6.66806 9.52855 7.19606L8.73389 7.99073L9.81255 8.30739C12.6339 9.13406 12.6666 11.9714 12.6666 12.0001H13.9999C13.9999 10.8074 13.3626 8.47673 11.0692 7.36539Z" fill="#091032"/>
<path d="M6.33203 8.00008C7.8027 8.00008 8.9987 6.80408 8.9987 5.33341C8.9987 3.86275 7.8027 2.66675 6.33203 2.66675C4.86136 2.66675 3.66536 3.86275 3.66536 5.33341C3.66536 6.80408 4.86136 8.00008 6.33203 8.00008ZM6.33203 4.00008C7.06736 4.00008 7.66536 4.59808 7.66536 5.33341C7.66536 6.06875 7.06736 6.66675 6.33203 6.66675C5.5967 6.66675 4.9987 6.06875 4.9987 5.33341C4.9987 4.59808 5.5967 4.00008 6.33203 4.00008ZM7.33203 8.66675H5.33203C3.12603 8.66675 1.33203 10.4607 1.33203 12.6667V13.3334H2.66536V12.6667C2.66536 11.1961 3.86136 10.0001 5.33203 10.0001H7.33203C8.8027 10.0001 9.9987 11.1961 9.9987 12.6667V13.3334H11.332V12.6667C11.332 10.4607 9.53803 8.66675 7.33203 8.66675Z" fill="#091032"/>
</svg>
